pwm.sim/sim_1/behav/xsim/simulate.log
Time resolution is 1 ps
Time: 0 | CLK: 0 | Reset: 1 | Counter:   0 | PWM Out: 0
Time: 5000 | CLK: 1 | Reset: 1 | Counter:   0 | PWM Out: 0
Time: 10000 | CLK: 0 | Reset: 0 | Counter:   0 | PWM Out: 0
Time: 15000 | CLK: 1 | Reset: 0 | Counter:   1 | PWM Out: 1
Time: 20000 | CLK: 0 | Reset: 0 | Counter:   1 | PWM Out: 1
Time: 25000 | CLK: 1 | Reset: 0 | Counter:   2 | PWM Out: 1
Time: 30000 | CLK: 0 | Reset: 0 | Counter:   2 | PWM Out: 1
Time: 35000 | CLK: 1 | Reset: 0 | Counter:   3 | PWM Out: 1
Time: 40000 | CLK: 0 | Reset: 0 | Counter:   3 | PWM Out: 1
Time: 45000 | CLK: 1 | Reset: 0 | Counter:   4 | PWM Out: 1
Time: 50000 | CLK: 0 | Reset: 0 | Counter:   4 | PWM Out: 1
Time: 55000 | CLK: 1 | Reset: 0 | Counter:   5 | PWM Out: 1
Time: 60000 | CLK: 0 | Reset: 0 | Counter:   5 | PWM Out: 1
Time: 65000 | CLK: 1 | Reset: 0 | Counter:   6 | PWM Out: 1
Time: 70000 | CLK: 0 | Reset: 0 | Counter:   6 | PWM Out: 1
Time: 75000 | CLK: 1 | Reset: 0 | Counter:   7 | PWM Out: 1
Time: 80000 | CLK: 0 | Reset: 0 | Counter:   7 | PWM Out: 1
Time: 85000 | CLK: 1 | Reset: 0 | Counter:   8 | PWM Out: 1
Time: 90000 | CLK: 0 | Reset: 0 | Counter:   8 | PWM Out: 1
Time: 95000 | CLK: 1 | Reset: 0 | Counter:   9 | PWM Out: 1
Time: 100000 | CLK: 0 | Reset: 0 | Counter:   9 | PWM Out: 1
Time: 105000 | CLK: 1 | Reset: 0 | Counter:  10 | PWM Out: 1
Time: 110000 | CLK: 0 | Reset: 0 | Counter:  10 | PWM Out: 1
Time: 115000 | CLK: 1 | Reset: 0 | Counter:  11 | PWM Out: 1
Time: 120000 | CLK: 0 | Reset: 0 | Counter:  11 | PWM Out: 1
Time: 125000 | CLK: 1 | Reset: 0 | Counter:  12 | PWM Out: 1
Time: 130000 | CLK: 0 | Reset: 0 | Counter:  12 | PWM Out: 1
Time: 135000 | CLK: 1 | Reset: 0 | Counter:  13 | PWM Out: 1
Time: 140000 | CLK: 0 | Reset: 0 | Counter:  13 | PWM Out: 1
Time: 145000 | CLK: 1 | Reset: 0 | Counter:  14 | PWM Out: 1
Time: 150000 | CLK: 0 | Reset: 0 | Counter:  14 | PWM Out: 1
Time: 155000 | CLK: 1 | Reset: 0 | Counter:  15 | PWM Out: 1
Time: 160000 | CLK: 0 | Reset: 0 | Counter:  15 | PWM Out: 1
Time: 165000 | CLK: 1 | Reset: 0 | Counter:  16 | PWM Out: 1
Time: 170000 | CLK: 0 | Reset: 0 | Counter:  16 | PWM Out: 1
Time: 175000 | CLK: 1 | Reset: 0 | Counter:  17 | PWM Out: 1
Time: 180000 | CLK: 0 | Reset: 0 | Counter:  17 | PWM Out: 1
Time: 185000 | CLK: 1 | Reset: 0 | Counter:  18 | PWM Out: 1
Time: 190000 | CLK: 0 | Reset: 0 | Counter:  18 | PWM Out: 1
Time: 195000 | CLK: 1 | Reset: 0 | Counter:  19 | PWM Out: 1
Time: 200000 | CLK: 0 | Reset: 0 | Counter:  19 | PWM Out: 1
Time: 205000 | CLK: 1 | Reset: 0 | Counter:  20 | PWM Out: 1
Time: 210000 | CLK: 0 | Reset: 0 | Counter:  20 | PWM Out: 1
Time: 215000 | CLK: 1 | Reset: 0 | Counter:  21 | PWM Out: 1
Time: 220000 | CLK: 0 | Reset: 0 | Counter:  21 | PWM Out: 1
Time: 225000 | CLK: 1 | Reset: 0 | Counter:  22 | PWM Out: 1
Time: 230000 | CLK: 0 | Reset: 0 | Counter:  22 | PWM Out: 1
Time: 235000 | CLK: 1 | Reset: 0 | Counter:  23 | PWM Out: 1
Time: 240000 | CLK: 0 | Reset: 0 | Counter:  23 | PWM Out: 1
Time: 245000 | CLK: 1 | Reset: 0 | Counter:  24 | PWM Out: 1
Time: 250000 | CLK: 0 | Reset: 0 | Counter:  24 | PWM Out: 1
Time: 255000 | CLK: 1 | Reset: 0 | Counter:  25 | PWM Out: 1
Time: 260000 | CLK: 0 | Reset: 0 | Counter:  25 | PWM Out: 1
Time: 265000 | CLK: 1 | Reset: 0 | Counter:  26 | PWM Out: 1
Time: 270000 | CLK: 0 | Reset: 0 | Counter:  26 | PWM Out: 1
Time: 275000 | CLK: 1 | Reset: 0 | Counter:  27 | PWM Out: 1
Time: 280000 | CLK: 0 | Reset: 0 | Counter:  27 | PWM Out: 1
Time: 285000 | CLK: 1 | Reset: 0 | Counter:  28 | PWM Out: 1
Time: 290000 | CLK: 0 | Reset: 0 | Counter:  28 | PWM Out: 1
Time: 295000 | CLK: 1 | Reset: 0 | Counter:  29 | PWM Out: 1
Time: 300000 | CLK: 0 | Reset: 0 | Counter:  29 | PWM Out: 1
Time: 305000 | CLK: 1 | Reset: 0 | Counter:  30 | PWM Out: 1
Time: 310000 | CLK: 0 | Reset: 0 | Counter:  30 | PWM Out: 1
Time: 315000 | CLK: 1 | Reset: 0 | Counter:  31 | PWM Out: 1
Time: 320000 | CLK: 0 | Reset: 0 | Counter:  31 | PWM Out: 1
Time: 325000 | CLK: 1 | Reset: 0 | Counter:  32 | PWM Out: 1
Time: 330000 | CLK: 0 | Reset: 0 | Counter:  32 | PWM Out: 1
Time: 335000 | CLK: 1 | Reset: 0 | Counter:  33 | PWM Out: 1
Time: 340000 | CLK: 0 | Reset: 0 | Counter:  33 | PWM Out: 1
Time: 345000 | CLK: 1 | Reset: 0 | Counter:  34 | PWM Out: 1
Time: 350000 | CLK: 0 | Reset: 0 | Counter:  34 | PWM Out: 1
Time: 355000 | CLK: 1 | Reset: 0 | Counter:  35 | PWM Out: 1
Time: 360000 | CLK: 0 | Reset: 0 | Counter:  35 | PWM Out: 1
Time: 365000 | CLK: 1 | Reset: 0 | Counter:  36 | PWM Out: 1
Time: 370000 | CLK: 0 | Reset: 0 | Counter:  36 | PWM Out: 1
Time: 375000 | CLK: 1 | Reset: 0 | Counter:  37 | PWM Out: 1
Time: 380000 | CLK: 0 | Reset: 0 | Counter:  37 | PWM Out: 1
Time: 385000 | CLK: 1 | Reset: 0 | Counter:  38 | PWM Out: 1
Time: 390000 | CLK: 0 | Reset: 0 | Counter:  38 | PWM Out: 1
Time: 395000 | CLK: 1 | Reset: 0 | Counter:  39 | PWM Out: 1
Time: 400000 | CLK: 0 | Reset: 0 | Counter:  39 | PWM Out: 1
Time: 405000 | CLK: 1 | Reset: 0 | Counter:  40 | PWM Out: 1
Time: 410000 | CLK: 0 | Reset: 0 | Counter:  40 | PWM Out: 1
Time: 415000 | CLK: 1 | Reset: 0 | Counter:  41 | PWM Out: 1
Time: 420000 | CLK: 0 | Reset: 0 | Counter:  41 | PWM Out: 1
Time: 425000 | CLK: 1 | Reset: 0 | Counter:  42 | PWM Out: 1
Time: 430000 | CLK: 0 | Reset: 0 | Counter:  42 | PWM Out: 1
Time: 435000 | CLK: 1 | Reset: 0 | Counter:  43 | PWM Out: 1
Time: 440000 | CLK: 0 | Reset: 0 | Counter:  43 | PWM Out: 1
Time: 445000 | CLK: 1 | Reset: 0 | Counter:  44 | PWM Out: 1
Time: 450000 | CLK: 0 | Reset: 0 | Counter:  44 | PWM Out: 1
Time: 455000 | CLK: 1 | Reset: 0 | Counter:  45 | PWM Out: 1
Time: 460000 | CLK: 0 | Reset: 0 | Counter:  45 | PWM Out: 1
Time: 465000 | CLK: 1 | Reset: 0 | Counter:  46 | PWM Out: 1
Time: 470000 | CLK: 0 | Reset: 0 | Counter:  46 | PWM Out: 1
Time: 475000 | CLK: 1 | Reset: 0 | Counter:  47 | PWM Out: 1
Time: 480000 | CLK: 0 | Reset: 0 | Counter:  47 | PWM Out: 1
Time: 485000 | CLK: 1 | Reset: 0 | Counter:  48 | PWM Out: 1
Time: 490000 | CLK: 0 | Reset: 0 | Counter:  48 | PWM Out: 1
Time: 495000 | CLK: 1 | Reset: 0 | Counter:  49 | PWM Out: 1
Time: 500000 | CLK: 0 | Reset: 0 | Counter:  49 | PWM Out: 1
Time: 505000 | CLK: 1 | Reset: 0 | Counter:  50 | PWM Out: 1
Time: 510000 | CLK: 0 | Reset: 0 | Counter:  50 | PWM Out: 1
Time: 515000 | CLK: 1 | Reset: 0 | Counter:  51 | PWM Out: 1
Time: 520000 | CLK: 0 | Reset: 0 | Counter:  51 | PWM Out: 1
Time: 525000 | CLK: 1 | Reset: 0 | Counter:  52 | PWM Out: 1
Time: 530000 | CLK: 0 | Reset: 0 | Counter:  52 | PWM Out: 1
Time: 535000 | CLK: 1 | Reset: 0 | Counter:  53 | PWM Out: 1
Time: 540000 | CLK: 0 | Reset: 0 | Counter:  53 | PWM Out: 1
Time: 545000 | CLK: 1 | Reset: 0 | Counter:  54 | PWM Out: 1
Time: 550000 | CLK: 0 | Reset: 0 | Counter:  54 | PWM Out: 1
Time: 555000 | CLK: 1 | Reset: 0 | Counter:  55 | PWM Out: 1
Time: 560000 | CLK: 0 | Reset: 0 | Counter:  55 | PWM Out: 1
Time: 565000 | CLK: 1 | Reset: 0 | Counter:  56 | PWM Out: 1
Time: 570000 | CLK: 0 | Reset: 0 | Counter:  56 | PWM Out: 1
Time: 575000 | CLK: 1 | Reset: 0 | Counter:  57 | PWM Out: 1
Time: 580000 | CLK: 0 | Reset: 0 | Counter:  57 | PWM Out: 1
Time: 585000 | CLK: 1 | Reset: 0 | Counter:  58 | PWM Out: 1
Time: 590000 | CLK: 0 | Reset: 0 | Counter:  58 | PWM Out: 1
Time: 595000 | CLK: 1 | Reset: 0 | Counter:  59 | PWM Out: 1
Time: 600000 | CLK: 0 | Reset: 0 | Counter:  59 | PWM Out: 1
Time: 605000 | CLK: 1 | Reset: 0 | Counter:  60 | PWM Out: 1
Time: 610000 | CLK: 0 | Reset: 0 | Counter:  60 | PWM Out: 1
Time: 615000 | CLK: 1 | Reset: 0 | Counter:  61 | PWM Out: 1
Time: 620000 | CLK: 0 | Reset: 0 | Counter:  61 | PWM Out: 1
Time: 625000 | CLK: 1 | Reset: 0 | Counter:  62 | PWM Out: 1
Time: 630000 | CLK: 0 | Reset: 0 | Counter:  62 | PWM Out: 1
Time: 635000 | CLK: 1 | Reset: 0 | Counter:  63 | PWM Out: 1
Time: 640000 | CLK: 0 | Reset: 0 | Counter:  63 | PWM Out: 1
Time: 645000 | CLK: 1 | Reset: 0 | Counter:  64 | PWM Out: 1
Time: 650000 | CLK: 0 | Reset: 0 | Counter:  64 | PWM Out: 1
Time: 655000 | CLK: 1 | Reset: 0 | Counter:  65 | PWM Out: 1
Time: 660000 | CLK: 0 | Reset: 0 | Counter:  65 | PWM Out: 1
Time: 665000 | CLK: 1 | Reset: 0 | Counter:  66 | PWM Out: 1
Time: 670000 | CLK: